pane	bloom	0	:vim	1	:*	0	:/home/elliotec/Dropbox/bloomjuice	0	zsh	:
pane	bloom	0	:vim	1	:*	1	:/home/elliotec/Dropbox/bloomjuice	0	zsh	:
pane	bloom	0	:vim	1	:*	2	:/home/elliotec/Dropbox/bloomjuice/app/views/layouts	1	vim	:vim
window	bloom	0	1	:*	5aa6,239x61,0,0{64x61,0,0[64x30,0,0,0,64x30,0,31,2],174x61,65,0,1}
state	bloom	
