pane	bloom	0	:vim	1	:*	0	:/home/elliotec/Dropbox/bloomjuice	0	ruby	:/home/elliotec/.rbenv/versions/2.3.0/bin/ruby bin/rails s
pane	bloom	0	:vim	1	:*	1	:/home/elliotec/Dropbox/bloomjuice	0	ruby	:/home/elliotec/.rbenv/versions/2.3.0/bin/ruby /home/elliotec/.rbenv/versions/2.3.0/bin/guard
pane	bloom	0	:vim	1	:*	2	:/home/elliotec/Dropbox/bloomjuice	1	vim	:vim
window	bloom	0	1	:*	c66a,239x61,0,0{59x61,0,0[59x30,0,0,0,59x30,0,31,2],179x61,60,0,1}
state	bloom	
