pane	bloom	0	:zsh	1	:*	0	:/home/elliotec/Dropbox/bloomjuice	1	zsh	:
pane	bloom	0	:zsh	1	:*	1	:/home/elliotec/Dropbox/bloomjuice	0	ruby	:/home/elliotec/.rbenv/versions/2.3.0/bin/ruby /home/elliotec/.rbenv/versions/2.3.0/bin/guard
pane	bloom	0	:zsh	1	:*	2	:/home/elliotec/Dropbox/bloomjuice/app/assets/stylesheets	0	vim	:vim
window	bloom	0	1	:*	4e85,239x61,0,0{44x61,0,0[44x30,0,0,0,44x30,0,31,2],194x61,45,0,1}
state	bloom	
