pane	bloom	0	:zsh	1	:*	0	:/home/elliotec/Dropbox/bloomjuice	0	zsh	:
pane	bloom	0	:zsh	1	:*	1	:/home/elliotec/Dropbox/bloomjuice	1	zsh	:
pane	bloom	0	:zsh	1	:*	2	:/home/elliotec/Dropbox/bloomjuice	0	zsh	:
window	bloom	0	1	:*	c66a,239x61,0,0{59x61,0,0[59x30,0,0,0,59x30,0,31,2],179x61,60,0,1}
state	bloom	
